Y.E Jeon's Blog: Random Forest based on Tidymodels
…
3-6. 

rf.pred <- augment(final.rf, HD.test)  
rf.pred

# A tibble: 276 x 13
     Age Sex   RestingBP Cholesterol FastingBS RestingECG MaxHR Angina
   <dbl> <fct>     <dbl>       <dbl>     <dbl> <fct>      <dbl> <fct> 
 1    54 M           110         208         0 Normal       142 N     
 2    37 M           140         207         0 Normal       130 Y     
 3    37 F           130         211         0 Normal       142 N     
 4    39 M           120         204         0 Normal       145 N     
 5    49 M           140         234         0 Normal       140 Y     
 6    42 F           115         211         0 ST           137 N     
 7    60 M           100         248         0 Normal       125 N     
 8    36 M           120         267         0 Normal       160 N     
 9    43 F           100         223         0 Normal       142 N     
10    36 M           130         209         0 Normal       178 N     
# ... with 266 more rows, and 5 more variables:
#   HeartPeakReading <dbl>, HeartDisease <fct>, .pred_class <fct>,
#   .pred_no <dbl>, .pred_yes <dbl>
…
