Y.E Jeon's Blog: ggplot2 Package
…
.

    .

  Package GGally  
ggpairs()   .

pacman::p_load("GGally")

scat_df <- data %>%
  select_if(is.numeric)                                          #   
scat_df

# A tibble: 234 x 5
   displ  year   cyl   cty   hwy
   <dbl> <int> <int> <int> <int>
 1   1.8  1999     4    18    29
 2   1.8  1999     4    21    29
 3   2    2008     4    20    31
 4   2    2008     4    21    30
 5   2.8  1999     6    16    26
 6   2.8  1999     6    18    26
 7   3.1  2008     6    18    27
 8   1.8  1999     4    18    26
 9   1.8  1999     4    16    25
10   2    2008     4    20    28
# ... with 224 more rows
…
