Y.E Jeon's Blog: tidyr Package
…
Package tidyr    billboard
2000 Billboard Top 100   (artist) 
(track), top 100   (data.entered), 
      wk1 wk76 
.     top 100   
           
  wk1 wk76     
  .

data(billboard)
billboard

# A tibble: 317 x 79
   artist track date.entered   wk1   wk2   wk3   wk4   wk5   wk6   wk7
   <chr>  <chr> <date>       <dbl> <dbl> <dbl> <dbl> <dbl> <dbl> <dbl>
 1 2 Pac  Baby~ 2000-02-26      87    82    72    77    87    94    99
 2 2Ge+h~ The ~ 2000-09-02      91    87    92    NA    NA    NA    NA
 3 3 Doo~ Kryp~ 2000-04-08      81    70    68    67    66    57    54
 4 3 Doo~ Loser 2000-10-21      76    76    72    69    67    65    55
 5 504 B~ Wobb~ 2000-04-15      57    34    25    17    17    31    36
 6 98^0   Give~ 2000-08-19      51    39    34    26    26    19     2
 7 A*Tee~ Danc~ 2000-07-08      97    97    96    95   100    NA    NA
 8 Aaliy~ I Do~ 2000-01-29      84    62    51    41    38    35    35
 9 Aaliy~ Try ~ 2000-03-18      59    53    38    28    21    18    16
10 Adams~ Open~ 2000-08-26      76    76    74    69    68    67    61
# ... with 307 more rows, and 69 more variables: wk8 <dbl>,
#   wk9 <dbl>, wk10 <dbl>, wk11 <dbl>, wk12 <dbl>, wk13 <dbl>,
#   wk14 <dbl>, wk15 <dbl>, wk16 <dbl>, wk17 <dbl>, wk18 <dbl>,
#   wk19 <dbl>, wk20 <dbl>, wk21 <dbl>, wk22 <dbl>, wk23 <dbl>,
#   wk24 <dbl>, wk25 <dbl>, wk26 <dbl>, wk27 <dbl>, wk28 <dbl>,
#   wk29 <dbl>, wk30 <dbl>, wk31 <dbl>, wk32 <dbl>, wk33 <dbl>,
#   wk34 <dbl>, wk35 <dbl>, wk36 <dbl>, wk37 <dbl>, wk38 <dbl>, ...
…
Package tidyr    fish_encounters
 station      
pivot_wider() 

fish_encounters

# A tibble: 114 x 3
   fish  station  seen
   <fct> <fct>   <int>
 1 4842  Release     1
 2 4842  I80_1       1
 3 4842  Lisbon      1
 4 4842  Rstr        1
 5 4842  Base_TD     1
 6 4842  BCE         1
 7 4842  BCW         1
 8 4842  BCE2        1
 9 4842  BCW2        1
10 4842  MAE         1
# ... with 104 more rows
…
Caution!      
   unnest()  .

unnest(mtcars_cyl, cols = data)

# A tibble: 32 x 11
# Groups:   cyl [3]
     cyl   mpg  disp    hp  drat    wt  qsec    vs    am  gear  carb
   <dbl> <dbl> <dbl> <dbl> <dbl> <dbl> <dbl> <dbl> <dbl> <dbl> <dbl>
 1     6  21    160    110  3.9   2.62  16.5     0     1     4     4
 2     6  21    160    110  3.9   2.88  17.0     0     1     4     4
 3     6  21.4  258    110  3.08  3.22  19.4     1     0     3     1
 4     6  18.1  225    105  2.76  3.46  20.2     1     0     3     1
 5     6  19.2  168.   123  3.92  3.44  18.3     1     0     4     4
 6     6  17.8  168.   123  3.92  3.44  18.9     1     0     4     4
 7     6  19.7  145    175  3.62  2.77  15.5     0     1     5     6
 8     4  22.8  108     93  3.85  2.32  18.6     1     1     4     1
 9     4  24.4  147.    62  3.69  3.19  20       1     0     4     2
10     4  22.8  141.    95  3.92  3.15  22.9     1     0     4     2
# ... with 22 more rows
…
