Y.E Jeon's Blog: Support Vector Machine based on Tidymodels
…
Linear (vanilla) kernel function. 

Number of Support Vectors : 349 

Objective Function Value : -3.3389 
Training error : 0.191589 
Probability model included. 

3-6. 

svm.li.pred <- augment(final.svm.li, HD.test)  
svm.li.pred

# A tibble: 276 x 13
     Age Sex   RestingBP Cholesterol FastingBS RestingECG MaxHR Angina
   <dbl> <fct>     <dbl>       <dbl>     <dbl> <fct>      <dbl> <fct> 
 1    54 M           110         208         0 Normal       142 N     
 2    37 M           140         207         0 Normal       130 Y     
 3    37 F           130         211         0 Normal       142 N     
 4    39 M           120         204         0 Normal       145 N     
 5    49 M           140         234         0 Normal       140 Y     
 6    42 F           115         211         0 ST           137 N     
 7    60 M           100         248         0 Normal       125 N     
 8    36 M           120         267         0 Normal       160 N     
 9    43 F           100         223         0 Normal       142 N     
10    36 M           130         209         0 Normal       178 N     
# ... with 266 more rows, and 5 more variables:
#   HeartPeakReading <dbl>, HeartDisease <fct>, .pred_class <fct>,
#   .pred_no <dbl>, .pred_yes <dbl>
…
Polynomial kernel function. 
 Hyperparameters : degree =  3  scale =  0.0147  offset =  1 

Number of Support Vectors : 574 

Objective Function Value : -0.6346 
Training error : 0.44704 
Probability model included. 

4-6. 

svm.po.pred <- augment(final.svm.po, HD.test)  
svm.po.pred

# A tibble: 276 x 13
     Age Sex   RestingBP Cholesterol FastingBS RestingECG MaxHR Angina
   <dbl> <fct>     <dbl>       <dbl>     <dbl> <fct>      <dbl> <fct> 
 1    54 M           110         208         0 Normal       142 N     
 2    37 M           140         207         0 Normal       130 Y     
 3    37 F           130         211         0 Normal       142 N     
 4    39 M           120         204         0 Normal       145 N     
 5    49 M           140         234         0 Normal       140 Y     
 6    42 F           115         211         0 ST           137 N     
 7    60 M           100         248         0 Normal       125 N     
 8    36 M           120         267         0 Normal       160 N     
 9    43 F           100         223         0 Normal       142 N     
10    36 M           130         209         0 Normal       178 N     
# ... with 266 more rows, and 5 more variables:
#   HeartPeakReading <dbl>, HeartDisease <fct>, .pred_class <fct>,
#   .pred_no <dbl>, .pred_yes <dbl>
…
Gaussian Radial Basis kernel function. 
 Hyperparameter : sigma =  0.0047 

Number of Support Vectors : 320 

Objective Function Value : -871.6852 
Training error : 0.193146 
Probability model included. 

5-6. 

svm.rbf.pred <- augment(final.svm.rbf, HD.test)  
svm.rbf.pred

# A tibble: 276 x 13
     Age Sex   RestingBP Cholesterol FastingBS RestingECG MaxHR Angina
   <dbl> <fct>     <dbl>       <dbl>     <dbl> <fct>      <dbl> <fct> 
 1    54 M           110         208         0 Normal       142 N     
 2    37 M           140         207         0 Normal       130 Y     
 3    37 F           130         211         0 Normal       142 N     
 4    39 M           120         204         0 Normal       145 N     
 5    49 M           140         234         0 Normal       140 Y     
 6    42 F           115         211         0 ST           137 N     
 7    60 M           100         248         0 Normal       125 N     
 8    36 M           120         267         0 Normal       160 N     
 9    43 F           100         223         0 Normal       142 N     
10    36 M           130         209         0 Normal       178 N     
# ... with 266 more rows, and 5 more variables:
#   HeartPeakReading <dbl>, HeartDisease <fct>, .pred_class <fct>,
#   .pred_no <dbl>, .pred_yes <dbl>
…
