Y.E Jeon's Blog: dplyr Package
…
7.  group_by

 group_by()      
     .

group_by(data, ) : data   

data %>%
  group_by(cyl)

# A tibble: 32 x 11
# Groups:   cyl [3]
     mpg   cyl  disp    hp  drat    wt  qsec    vs    am  gear  carb
   <dbl> <dbl> <dbl> <dbl> <dbl> <dbl> <dbl> <dbl> <dbl> <dbl> <dbl>
 1  21       6  160    110  3.9   2.62  16.5     0     1     4     4
 2  21       6  160    110  3.9   2.88  17.0     0     1     4     4
 3  22.8     4  108     93  3.85  2.32  18.6     1     1     4     1
 4  21.4     6  258    110  3.08  3.22  19.4     1     0     3     1
 5  18.7     8  360    175  3.15  3.44  17.0     0     0     3     2
 6  18.1     6  225    105  2.76  3.46  20.2     1     0     3     1
 7  14.3     8  360    245  3.21  3.57  15.8     0     0     3     4
 8  24.4     4  147.    62  3.69  3.19  20       1     0     4     2
 9  22.8     4  141.    95  3.92  3.15  22.9     1     0     4     2
10  19.2     6  168.   123  3.92  3.44  18.3     1     0     4     4
# ... with 22 more rows

Result!  cyl  3  .

data %>%
  group_by(cyl, am)

# A tibble: 32 x 11
# Groups:   cyl, am [6]
     mpg   cyl  disp    hp  drat    wt  qsec    vs    am  gear  carb
   <dbl> <dbl> <dbl> <dbl> <dbl> <dbl> <dbl> <dbl> <dbl> <dbl> <dbl>
 1  21       6  160    110  3.9   2.62  16.5     0     1     4     4
 2  21       6  160    110  3.9   2.88  17.0     0     1     4     4
 3  22.8     4  108     93  3.85  2.32  18.6     1     1     4     1
 4  21.4     6  258    110  3.08  3.22  19.4     1     0     3     1
 5  18.7     8  360    175  3.15  3.44  17.0     0     0     3     2
 6  18.1     6  225    105  2.76  3.46  20.2     1     0     3     1
 7  14.3     8  360    245  3.21  3.57  15.8     0     0     3     4
 8  24.4     4  147.    62  3.69  3.19  20       1     0     4     2
 9  22.8     4  141.    95  3.92  3.15  22.9     1     0     4     2
10  19.2     6  168.   123  3.92  3.44  18.3     1     0     4     4
# ... with 22 more rows
…
7-2.  

 group_by() 
arrange()      
.

data %>%
  group_by(cyl) %>%
  arrange(mpg, .by_group = TRUE)

# A tibble: 32 x 11
# Groups:   cyl [3]
     mpg   cyl  disp    hp  drat    wt  qsec    vs    am  gear  carb
   <dbl> <dbl> <dbl> <dbl> <dbl> <dbl> <dbl> <dbl> <dbl> <dbl> <dbl>
 1  21.4     4 121     109  4.11  2.78  18.6     1     1     4     2
 2  21.5     4 120.     97  3.7   2.46  20.0     1     0     3     1
 3  22.8     4 108      93  3.85  2.32  18.6     1     1     4     1
 4  22.8     4 141.     95  3.92  3.15  22.9     1     0     4     2
 5  24.4     4 147.     62  3.69  3.19  20       1     0     4     2
 6  26       4 120.     91  4.43  2.14  16.7     0     1     5     2
 7  27.3     4  79      66  4.08  1.94  18.9     1     1     4     1
 8  30.4     4  75.7    52  4.93  1.62  18.5     1     1     4     2
 9  30.4     4  95.1   113  3.77  1.51  16.9     1     1     5     2
10  32.4     4  78.7    66  4.08  2.2   19.5     1     1     4     1
# ... with 22 more rows
…
